Library\Bee\artifacts\mvdfrm\Unity.EditorCoroutines.Editor.ref.dll_34ED10A34098B2DB.mvfrm
Library\Bee\artifacts\mvdfrm\Unity.Performance.Profile-Analyzer.Editor.ref.dll_65A192712782EB2B.mvfrm
Library\Bee\artifacts\mvdfrm\Unity.PlasticSCM.Editor.ref.dll_257AEB342BE77856.mvfrm
Library\Bee\artifacts\mvdfrm\Unity.Rider.Editor.ref.dll_9B5591808ABA37AF.mvfrm
Library\Bee\artifacts\mvdfrm\Unity.Services.Core.Analytics.ref.dll_EDA1682A714EA6BF.mvfrm
Library\Bee\artifacts\mvdfrm\Unity.Services.Core.Environments.ref.dll_7E0AC2CDE81D9C6D.mvfrm
Library\Bee\artifacts\mvdfrm\Unity.Services.Core.ref.dll_131AC9C5EC6E6517.mvfrm
Library\Bee\artifacts\mvdfrm\Unity.TestTools.CodeCoverage.Editor.OpenCover.Model.ref.dll_D3B9364D6FB03093.mvfrm
Library\Bee\artifacts\mvdfrm\Unity.TestTools.CodeCoverage.Editor.OpenCover.Mono.Reflection.ref.dll_E668CD773429A040.mvfrm
Library\Bee\artifacts\mvdfrm\Unity.TestTools.CodeCoverage.Editor.ref.dll_F09CF4826CE11CD9.mvfrm
Library\Bee\artifacts\mvdfrm\Unity.TextMeshPro.Editor.ref.dll_159E061D77A10B86.mvfrm
Library\Bee\artifacts\mvdfrm\Unity.TextMeshPro.ref.dll_84A4293DBDD182DB.mvfrm
Library\Bee\artifacts\mvdfrm\Unity.Timeline.Editor.ref.dll_0D3D3C0B73557612.mvfrm
Library\Bee\artifacts\mvdfrm\Unity.Timeline.ref.dll_621CDDF9C514DF8F.mvfrm
Library\Bee\artifacts\mvdfrm\Unity.VSCode.Editor.ref.dll_3628369EB48E4C19.mvfrm
Library\Bee\artifacts\mvdfrm\Unity.VisualScripting.Core.Editor.ref.dll_EDC8690F57C5BDFD.mvfrm
Library\Bee\artifacts\mvdfrm\Unity.VisualScripting.Core.ref.dll_D75DF4EA1AFE54F4.mvfrm
Library\Bee\artifacts\mvdfrm\Unity.VisualScripting.Flow.Editor.ref.dll_6AF951BE66A4493E.mvfrm
Library\Bee\artifacts\mvdfrm\Unity.VisualScripting.Flow.ref.dll_1E6ED5409D07C9A3.mvfrm
Library\Bee\artifacts\mvdfrm\Unity.VisualScripting.SettingsProvider.Editor.ref.dll_A1A44354E0B583A8.mvfrm
Library\Bee\artifacts\mvdfrm\Unity.VisualScripting.Shared.Editor.ref.dll_9669F6EBFF6DFFB7.mvfrm
Library\Bee\artifacts\mvdfrm\Unity.VisualScripting.State.Editor.ref.dll_E03858E727F23F6F.mvfrm
Library\Bee\artifacts\mvdfrm\Unity.VisualScripting.State.ref.dll_D91762B7076BE462.mvfrm
Library\Bee\artifacts\mvdfrm\Unity.VisualStudio.Editor.ref.dll_3A975DBA53ABA4AD.mvfrm
Library\Bee\artifacts\mvdfrm\UnityEditor.UI.ref.dll_4C98D3F7040CD4F5.mvfrm
Library\Bee\artifacts\mvdfrm\UnityEngine.UI.ref.dll_08FEAA520A2EFD60.mvfrm
Library\Bee\artifacts\mvdfrm\UnityEditor.CoreModule.dll_81EF1BC7B5984A28.mvfrm
Library\Bee\artifacts\mvdfrm\UnityEditor.DeviceSimulatorModule.dll_E2BB6680AFF33419.mvfrm
Library\Bee\artifacts\mvdfrm\UnityEditor.DiagnosticsModule.dll_5478F61B1B373827.mvfrm
Library\Bee\artifacts\mvdfrm\UnityEditor.dll_930C1520343346ED.mvfrm
Library\Bee\artifacts\mvdfrm\UnityEditor.GraphViewModule.dll_F3AF412073085D1E.mvfrm
Library\Bee\artifacts\mvdfrm\UnityEditor.PackageManagerUIModule.dll_BD8B557C5FFCD584.mvfrm
Library\Bee\artifacts\mvdfrm\UnityEditor.QuickSearchModule.dll_DF887728740E3480.mvfrm
Library\Bee\artifacts\mvdfrm\UnityEditor.SceneTemplateModule.dll_D9E8270C28CB0301.mvfrm
Library\Bee\artifacts\mvdfrm\UnityEditor.TextCoreFontEngineModule.dll_16B80E06656A0EA6.mvfrm
Library\Bee\artifacts\mvdfrm\UnityEditor.TextCoreTextEngineModule.dll_5EA04477F4EDC7C4.mvfrm
Library\Bee\artifacts\mvdfrm\UnityEditor.UIBuilderModule.dll_4837EE3CE5C0D652.mvfrm
Library\Bee\artifacts\mvdfrm\UnityEditor.UIElementsModule.dll_9829DBCAF22F7864.mvfrm
Library\Bee\artifacts\mvdfrm\UnityEditor.UIElementsSamplesModule.dll_5EAC395EFCEABB49.mvfrm
Library\Bee\artifacts\mvdfrm\UnityEditor.UIServiceModule.dll_8129FF9FCEF8266C.mvfrm
Library\Bee\artifacts\mvdfrm\UnityEditor.UnityConnectModule.dll_DB9C234F351A0CDE.mvfrm
Library\Bee\artifacts\mvdfrm\UnityEngine.AccessibilityModule.dll_0C8D92A329412A9E.mvfrm
Library\Bee\artifacts\mvdfrm\UnityEngine.AIModule.dll_D16F6E2D345A637C.mvfrm
Library\Bee\artifacts\mvdfrm\UnityEngine.AndroidJNIModule.dll_1672C49E3B4EE73A.mvfrm
Library\Bee\artifacts\mvdfrm\UnityEngine.AnimationModule.dll_C234BD494D6531C4.mvfrm
Library\Bee\artifacts\mvdfrm\UnityEngine.ARModule.dll_8AE233309177C245.mvfrm
Library\Bee\artifacts\mvdfrm\UnityEngine.AssetBundleModule.dll_2371AA19D674E972.mvfrm
Library\Bee\artifacts\mvdfrm\UnityEngine.AudioModule.dll_621B29C283A681B6.mvfrm
Library\Bee\artifacts\mvdfrm\UnityEngine.ClothModule.dll_C90386BD5DC3609A.mvfrm
Library\Bee\artifacts\mvdfrm\UnityEngine.ClusterInputModule.dll_5B389864E6A1DFA4.mvfrm
Library\Bee\artifacts\mvdfrm\UnityEngine.ClusterRendererModule.dll_E86828F21FAE419D.mvfrm
Library\Bee\artifacts\mvdfrm\UnityEngine.CoreModule.dll_A50FEF1A5D9DB553.mvfrm
Library\Bee\artifacts\mvdfrm\UnityEngine.CrashReportingModule.dll_D45ED541562F5ACB.mvfrm
Library\Bee\artifacts\mvdfrm\UnityEngine.DirectorModule.dll_BF8A562893EB4030.mvfrm
Library\Bee\artifacts\mvdfrm\UnityEngine.dll_C5B05BF892A6D3D2.mvfrm
Library\Bee\artifacts\mvdfrm\UnityEngine.DSPGraphModule.dll_C4DBB792064C1151.mvfrm
Library\Bee\artifacts\mvdfrm\UnityEngine.GameCenterModule.dll_40C00EB9018FD82B.mvfrm
Library\Bee\artifacts\mvdfrm\UnityEngine.GIModule.dll_69ABB73AD0094B96.mvfrm
Library\Bee\artifacts\mvdfrm\UnityEngine.GridModule.dll_82810B0875F24B4A.mvfrm
Library\Bee\artifacts\mvdfrm\UnityEngine.HotReloadModule.dll_437D7B4F28984D46.mvfrm
Library\Bee\artifacts\mvdfrm\UnityEngine.ImageConversionModule.dll_545A26A2A1D2F991.mvfrm
Library\Bee\artifacts\mvdfrm\UnityEngine.IMGUIModule.dll_9A7AC92949D81597.mvfrm
Library\Bee\artifacts\mvdfrm\UnityEngine.InputLegacyModule.dll_B4B6C5386E669F63.mvfrm
Library\Bee\artifacts\mvdfrm\UnityEngine.InputModule.dll_C890F172F9DEA65A.mvfrm
Library\Bee\artifacts\mvdfrm\UnityEngine.JSONSerializeModule.dll_6CA51BDF287C8B28.mvfrm
Library\Bee\artifacts\mvdfrm\UnityEngine.LocalizationModule.dll_998562B77E1DD29D.mvfrm
Library\Bee\artifacts\mvdfrm\UnityEngine.ParticleSystemModule.dll_27711E8DC440E659.mvfrm
Library\Bee\artifacts\mvdfrm\UnityEngine.PerformanceReportingModule.dll_FD545C5F8B495D12.mvfrm
Library\Bee\artifacts\mvdfrm\UnityEngine.Physics2DModule.dll_0EDAAD39EE622959.mvfrm
Library\Bee\artifacts\mvdfrm\UnityEngine.PhysicsModule.dll_35DBF3CDF3551F47.mvfrm
Library\Bee\artifacts\mvdfrm\UnityEngine.ProfilerModule.dll_F1D08F5F2D44C73D.mvfrm
Library\Bee\artifacts\mvdfrm\UnityEngine.RuntimeInitializeOnLoadManagerInitializerModule.dll_923EF2206BCBCC22.mvfrm
Library\Bee\artifacts\mvdfrm\UnityEngine.ScreenCaptureModule.dll_868CC9643CE8B78A.mvfrm
Library\Bee\artifacts\mvdfrm\UnityEngine.SharedInternalsModule.dll_D86B65781900F4E1.mvfrm
Library\Bee\artifacts\mvdfrm\UnityEngine.SpriteMaskModule.dll_29EC814922FF6DA5.mvfrm
Library\Bee\artifacts\mvdfrm\UnityEngine.SpriteShapeModule.dll_3CD2D7748C17217C.mvfrm
Library\Bee\artifacts\mvdfrm\UnityEngine.StreamingModule.dll_76C9AA999CECE902.mvfrm
Library\Bee\artifacts\mvdfrm\UnityEngine.SubstanceModule.dll_5374BEE2E83FE710.mvfrm
Library\Bee\artifacts\mvdfrm\UnityEngine.SubsystemsModule.dll_9499E7AAF14755B8.mvfrm
Library\Bee\artifacts\mvdfrm\UnityEngine.TerrainModule.dll_50226F3CC9136835.mvfrm
Library\Bee\artifacts\mvdfrm\UnityEngine.TerrainPhysicsModule.dll_27EBC760DD83E0E6.mvfrm
Library\Bee\artifacts\mvdfrm\UnityEngine.TextCoreFontEngineModule.dll_951789597867CD71.mvfrm
Library\Bee\artifacts\mvdfrm\UnityEngine.TextCoreTextEngineModule.dll_DCFFBFCB07EB868F.mvfrm
Library\Bee\artifacts\mvdfrm\UnityEngine.TextRenderingModule.dll_AFCC3B6EF420377F.mvfrm
Library\Bee\artifacts\mvdfrm\UnityEngine.TilemapModule.dll_EF1ED6BDE0D0493E.mvfrm
Library\Bee\artifacts\mvdfrm\UnityEngine.TLSModule.dll_00D5DD5443A7C65B.mvfrm
Library\Bee\artifacts\mvdfrm\UnityEngine.UIElementsModule.dll_98D84912F47391AF.mvfrm
Library\Bee\artifacts\mvdfrm\UnityEngine.UIElementsNativeModule.dll_08050A11D17545A6.mvfrm
Library\Bee\artifacts\mvdfrm\UnityEngine.UIModule.dll_CCE30C5A90A16928.mvfrm
Library\Bee\artifacts\mvdfrm\UnityEngine.UmbraModule.dll_DCEFD5DB10CD2D29.mvfrm
Library\Bee\artifacts\mvdfrm\UnityEngine.UNETModule.dll_37B63703AAACAACC.mvfrm
Library\Bee\artifacts\mvdfrm\UnityEngine.UnityAnalyticsModule.dll_47108F5770683855.mvfrm
Library\Bee\artifacts\mvdfrm\UnityEngine.UnityConnectModule.dll_C8FBA75E2FA20D89.mvfrm
Library\Bee\artifacts\mvdfrm\UnityEngine.UnityCurlModule.dll_F5515E7ABD7923B1.mvfrm
Library\Bee\artifacts\mvdfrm\UnityEngine.UnityTestProtocolModule.dll_1A6EEF5156E6109F.mvfrm
Library\Bee\artifacts\mvdfrm\UnityEngine.UnityWebRequestAssetBundleModule.dll_0F546CAB59A712E6.mvfrm
Library\Bee\artifacts\mvdfrm\UnityEngine.UnityWebRequestAudioModule.dll_7550B03E11B427AA.mvfrm
Library\Bee\artifacts\mvdfrm\UnityEngine.UnityWebRequestModule.dll_65F92E4CACC79410.mvfrm
Library\Bee\artifacts\mvdfrm\UnityEngine.UnityWebRequestTextureModule.dll_9ED9E8F19D9CB6BF.mvfrm
Library\Bee\artifacts\mvdfrm\UnityEngine.UnityWebRequestWWWModule.dll_A7C20526F7AB42FB.mvfrm
Library\Bee\artifacts\mvdfrm\UnityEngine.VehiclesModule.dll_374D4FA80E150FCB.mvfrm
Library\Bee\artifacts\mvdfrm\UnityEngine.VFXModule.dll_81B475C31A152FC8.mvfrm
Library\Bee\artifacts\mvdfrm\UnityEngine.VideoModule.dll_8724AE2D46389D5B.mvfrm
Library\Bee\artifacts\mvdfrm\UnityEngine.VirtualTexturingModule.dll_2C91BE80AA23C631.mvfrm
Library\Bee\artifacts\mvdfrm\UnityEngine.VRModule.dll_1FB532E0325BEEA0.mvfrm
Library\Bee\artifacts\mvdfrm\UnityEngine.WindModule.dll_1B5ECA42EED433BC.mvfrm
Library\Bee\artifacts\mvdfrm\UnityEngine.XRModule.dll_5273F5E4BB963BFE.mvfrm
Library\Bee\artifacts\mvdfrm\Unity.VisualScripting.Antlr3.Runtime.dll_089098596760B864.mvfrm